Doctor Who: The Revival Era Analysis
…
Observations:

With regards to the Directors, any correlation between the decline in views and ratings are hard to determine, due to to only 5 (Hettie MacDonald, Douglas Mackinnon, Peter Hoar, Charles Palmer, and Jamie Magnus Stone) of the 66 directors directing episodes from differing series lengths.

Writer

Count of Writers

Show the code

(Writers <- dw |>  
    group_by(Era, The_Doctor_Tenure, Series, EpisodeType) |> 
    count(WriterCat, name = "Count"))

# A tibble: 40 × 6
# Groups:   Era, The_Doctor_Tenure, Series, EpisodeType [30]
   Era                  The_Doctor_Tenure Series     EpisodeType WriterCat Count
   <fct>                <fct>             <fct>      <chr>       <chr>     <int>
 1 Russell T Davies (1) Ninth Doctor      One        Series      Solo Wri…    13
 2 Russell T Davies (1) Tenth Doctor      Two        Series      Solo Wri…    13
 3 Russell T Davies (1) Tenth Doctor      Two        Special     Solo Wri…     1
 4 Russell T Davies (1) Tenth Doctor      Three      Series      Solo Wri…    13
 5 Russell T Davies (1) Tenth Doctor      Three      Special     Solo Wri…     1
 6 Russell T Davies (1) Tenth Doctor      Four       Series      Solo Wri…    13
 7 Russell T Davies (1) Tenth Doctor      Four       Special     Solo Wri…     1
 8 Russell T Davies (1) Tenth Doctor      2008-2010… Special     Co-Writt…     2
 9 Russell T Davies (1) Tenth Doctor      2008-2010… Special     Solo Wri…     3
10 Steven Moffat        Eleventh Doctor   Five       Series      Solo Wri…    13
# ℹ 30 more rows
…
